[
  [
    {
      "id": "1",
      "name": "Samsung Galaxy Z Flip4 5G",
      "price": 20990000,
      "img": "https://cdn.tgdd.vn/Products/Images/42/258047/samsung-galaxy-z-flip4-5g-128gb-thumb-tim-600x600.jpg",
      "desc": "Thiết kế mang tính đột phá",
      "type": "samsung"
    },
    {
      "id": "2",
      "name": "Iphone 11",
      "price": 11990000,
      "img": "https://cdn.tgdd.vn/Products/Images/42/153856/iphone-11-trang-600x600.jpg",
      "desc": "\"Thiết kế đột phá, màn hình tuyệt đỉnh\"",
      "type": "iphone"
    },
    {
      "id": "3",
      "name": "Xiaomi Redmi Note 11",
      "price": 4490000,
      "img": "https://cdn.tgdd.vn/Products/Images/42/269831/Xiaomi-redmi-note-11-black-600x600.jpeg",
      "desc": "Thiết kế mang tính đột phá",
      "type": "xiaomi"
    },
    {
      "id": "4",
      "name": "Xiaomi Redmi Note 11S series",
      "price": 6490000,
      "img": "https://didongviet.vn/pub/media/catalog/product//i/p/iphone-11-pro-max-256gb-didongviet_23.jpg",
      "desc": "Thiết kế đột phá, màn hình tuyệt đỉnh",
      "type": "iphone"
    },
    {
      "id": "5",
      "name": "Xiaomi 12T Pro",
      "price": 16990000,
      "img": "https://cdn.tgdd.vn/Products/Images/42/279066/xiaomi-12t-pro-thumb-den-1-600x600.jpg",
      "desc": "Thiết kế mang tính đột phá",
      "type": "xiaomi"
    },
    {
      "id": "6",
      "name": "Samsung Galaxy S22 Ultra 5G",
      "price": 25990000,
      "img": "https://cdn.tgdd.vn/Products/Images/42/235838/Galaxy-S22-Ultra-Burgundy-600x600.jpg",
      "desc": "Thiết kế mang tính đột phá",
      "type": "samsung"
    },
    {
      "id": "7",
      "name": "Samsung Galaxy M53",
      "price": 11100000,
      "img": "https://cdn.tgdd.vn/Products/Images/42/247364/samsung-galaxy-m53-nau-thumb-600x600.jpg",
      "desc": "Thiết kế mang tính đột phá",
      "type": "samsung"
    },
    {
      "id": "8",
      "name": "Samsung Galaxy S21 FE 5G",
      "price": 12990000,
      "img": "https://cdn.tgdd.vn/Products/Images/42/233090/Samsung-Galaxy-S21-FE-trang-1-2-600x600.jpg",
      "desc": "Thiết kế mang tính đột phá",
      "type": "samsung"
    },
    {
      "id": "9",
      "name": "Samsung Galaxy A73 5G Awesome Edition",
      "price": 10790000,
      "img": "https://cdn.tgdd.vn/Products/Images/42/288597/Samsung-Galaxy-A73-PUBG-Thumb-600x600.jpg",
      "desc": "Thiết kế mang tính đột phá",
      "type": "samsung"
    },
    {
      "id": "10",
      "name": "Samsung Galaxy A13",
      "price": 25990000,
      "img": "https://cdn.tgdd.vn/Products/Images/42/262402/Samsung-Galaxy-A13-cam-thumb-600x600.jpg",
      "desc": "Thiết kế mang tính đột phá",
      "type": "samsung"
    },
    {
      "id": "11",
      "name": "iPhone 13 Pro Max",
      "price": 28490000,
      "img": "https://cdn.tgdd.vn/Products/Images/42/230529/iphone-13-pro-max-xanh-la-thumb-600x600.jpg",
      "desc": "Thiết kế mang tính đột phá",
      "type": "iphone"
    },
    {
      "id": "12",
      "name": "iPhone 14 Pro Max",
      "price": 33990000,
      "img": "https://cdn.tgdd.vn/Products/Images/42/251192/iphone-14-pro-max-tim-thumb-600x600.jpg",
      "desc": "Thiết kế mang tính đột phá",
      "type": "iphone"
    },
    {
      "id": "13",
      "name": "iPhone SE 64GB (2022)",
      "price": 11490000,
      "img": "https://cdn.tgdd.vn/Products/Images/42/244141/iphone-se-black-600x600.jpeg",
      "desc": "Thiết kế mang tính đột phá",
      "type": "iphone"
    },
    {
      "id": "14",
      "name": "iPhone 12 mini",
      "price": 13490000,
      "img": "https://cdn.tgdd.vn/Products/Images/42/225380/iphone-12-mini-do-4-600x600.jpg",
      "desc": "Thiết kế mang tính đột phá",
      "type": "iphone"
    },
    {
      "id": "15",
      "name": "Vivo Y02s",
      "price": 3490000,
      "img": "https://cdn.tgdd.vn/Products/Images/42/285032/vivo-y02s-thumb-1-2-3-600x600.jpg",
      "desc": "Thiết kế mang tính đột phá",
      "type": "vivo"
    },
    {
      "id": "16",
      "name": "Vivo Y35",
      "price": 6990000,
      "img": "https://cdn.tgdd.vn/Products/Images/42/286697/vivo-y35-thumb-den-600x600.jpg",
      "desc": "Thiết kế mang tính đột phá",
      "type": "vivo"
    },
    {
      "id": "17",
      "name": "OPPO Find X5 Pro 5G",
      "price": 30490000,
      "img": "https://cdn.tgdd.vn/Products/Images/42/250622/oppo-find-x5-pro-den-thumb-600x600.jpg",
      "desc": "Thiết kế mang tính đột phá",
      "type": "oppo"
    },
    {
      "id": "18",
      "name": "Nokia G21",
      "price": 3890000,
      "img": "https://cdn.tgdd.vn/Products/Images/42/270207/nokia-g21-xanh-thumb-600x600.jpg",
      "desc": "Thiết kế mang tính đột phá",
      "type": "nokia"
    }
  ],
  [
    {
        "link": "https://cdn.tgdd.vn/Products/Images/42/235838/Galaxy-S22-Ultra-Burgundy-600x600.jpg",
        "link1": "https://cdn.tgdd.vn/Products/Images/42/258047/samsung-galaxy-z-flip4-5g-128gb-thumb-tim-600x600.jpg",
        "link2": "https://cdn.tgdd.vn/Products/Images/42/260546/oppo-reno8-pro-thumb-xanh-1-600x600.jpg",
        "link3": "https://cdn.tgdd.vn/Products/Images/42/260546/oppo-reno8-pro-thumb-xanh-1-600x600.jpg",
        "link4": "https://cdn.tgdd.vn/Products/Images/42/236186/oppo-reno6-5g-black-600x600.jpg",
        "link5": "https://cdn.tgdd.vn/Products/Images/42/283148/vivo-v25-5g-vang-thumb-1-1-600x600.jpg",
        "link6": "https://cdn.tgdd.vn/Products/Images/42/246199/samsung-galaxy-a33-5g-xanh-thumb-600x600.jpg",
        "link7": "https://cdn.tgdd.vn/Products/Images/42/237603/samsung-galaxy-a22-4g-violet-600x600.jpg"
    }
  ]
]
